<svg height="483pt" viewBox="0 -1 483.24339 483" width="483pt" xmlns="http://www.w3.org/2000/svg">
<defs><style>.cls-1{fill:#225198;}</style></defs><title>signing</title>
<path class="cls-1" d="m436.65625 221.820312c-9.5-9.066406-24.445312-9.066406-33.941406 0l-.289063.285157c-36.621093-31.28125-89.925781-33.34375-128.855469-4.984375l-40.5625-40.558594c-3.121093-3.121094-8.1875-3.121094-11.3125 0l-5.652343 5.65625-175.371094-175.359375c-9.414063-9.097656-24.386719-8.964844-33.640625.292969-9.257812 9.257812-9.390625 24.226562-.292969 33.640625l175.359375 175.371093-5.65625 5.65625c-3.125 3.121094-3.125 8.1875 0 11.308594l40.558594 40.5625c-28.359375 38.929688-26.296875 92.234375 4.984375 128.855469l-.289063.289063c-9.367187 9.371093-9.367187 24.5625 0 33.933593l16.96875 16.976563 214.960938-214.960938zm-418.613281-192.335937c-3.128907-3.128906-3.128907-8.195313 0-11.320313 3.125-3.128906 8.191406-3.128906 11.316406 0l175.371094 175.359376-11.320313 11.320312zm175.359375 197.992187 33.941406-33.945312 33.9375 33.945312-33.9375 33.933594zm45.253906 45.253907 33.945312-33.945313c32.191407-32.128906 83.550782-34.480468 118.542969-5.421875l-157.902343 157.902344c-29.058594-34.988281-26.707032-86.34375 5.421874-118.535156zm0 158.398437-5.65625-5.671875c-1.507812-1.488281-2.351562-3.523437-2.34375-5.644531 0-2.125.84375-4.15625 2.34375-5.65625l181.042969-181.027344c3.121093-3.121094 8.1875-3.121094 11.308593 0l5.664063 5.65625zm0 0"/>
<path class="cls-1" d="m373.882812 386.417969c8.183594-6.109375 13.109376-15.644531 13.359376-25.855469h-16c0 6.207031-2.824219 9.121094-8.242188 14.128906-8.382812 5.945313-13.363281 15.582032-13.363281 25.859375 0 10.277344 4.980469 19.914063 13.363281 25.859375 5.417969 5.015625 8.242188 7.929688 8.242188 14.144532 0 6.214843-2.824219 9.121093-8.242188 14.136718-8.183594 6.117188-13.109375 15.65625-13.359375 25.871094h16c0-6.214844 2.824219-9.128906 8.242187-14.144531 8.378907-5.949219 13.359376-15.589844 13.359376-25.867188 0-10.277343-4.980469-19.917969-13.359376-25.867187-5.417968-5.015625-8.242187-7.921875-8.242187-14.136719s2.800781-9.121094 8.242187-14.128906zm0 0"/>
<path class="cls-1" d="m421.882812 386.417969c8.183594-6.109375 13.109376-15.644531 13.359376-25.855469h-16c0 6.207031-2.824219 9.121094-8.242188 14.128906-8.382812 5.945313-13.363281 15.582032-13.363281 25.859375 0 10.277344 4.980469 19.914063 13.363281 25.859375 5.417969 5.015625 8.242188 7.929688 8.242188 14.144532 0 6.214843-2.824219 9.121093-8.242188 14.136718-8.183594 6.117188-13.109375 15.65625-13.359375 25.871094h16c0-6.214844 2.824219-9.128906 8.242187-14.144531 8.378907-5.949219 13.359376-15.589844 13.359376-25.867188 0-10.277343-4.980469-19.917969-13.359376-25.867187-5.417968-5.015625-8.242187-7.921875-8.242187-14.136719s2.800781-9.121094 8.242187-14.128906zm0 0"/>
<path class="cls-1" d="m469.882812 414.683594c-5.417968-5.015625-8.242187-7.921875-8.242187-14.136719s2.824219-9.121094 8.242187-14.128906c8.183594-6.109375 13.109376-15.644531 13.359376-25.855469h-16c0 6.207031-2.824219 9.121094-8.242188 14.128906-8.382812 5.945313-13.363281 15.582032-13.363281 25.859375 0 10.277344 4.980469 19.914063 13.363281 25.859375 5.417969 5.015625 8.242188 7.929688 8.242188 14.144532 0 6.214843-2.824219 9.121093-8.242188 14.136718-8.183594 6.117188-13.109375 15.65625-13.359375 25.871094h16c0-6.214844 2.824219-9.128906 8.242187-14.144531 8.378907-5.949219 13.359376-15.589844 13.359376-25.867188 0-10.277343-4.980469-19.917969-13.359376-25.867187zm0 0"/>
<path class="cls-1" d="m360.441406 224.5625h16v16h-16zm0 0"/>
<path class="cls-1" d="m336.441406 224.5625h16v16h-16zm0 0"/>
<path class="cls-1" d="m336.441406 248.5625h16v16h-16zm0 0"/>
<path class="cls-1" d="m193.242188 47.425781c9.976562 9.902344 15.601562 23.371094 15.628906 37.425781.027344 14.058594-5.542969 27.546876-15.484375 37.488282l11.292969 11.328125c12.972656-12.957031 20.242187-30.546875 20.195312-48.878907-.042969-18.332031-7.398438-35.886718-20.433594-48.777343-26.695312-25.738281-68.933594-25.847657-95.761718-.25l11.113281 11.519531c20.5625-19.648438 52.960937-19.585938 73.449219.144531zm0 0"/>
<path class="cls-1" d="m182.089844 111.019531c6.984375-6.953125 10.875-16.425781 10.792968-26.28125.011719-9.734375-3.894531-19.066406-10.839843-25.886719-14.28125-13.734374-36.851563-13.757812-51.152344-.046874l11.101563 11.519531c8.042968-7.765625 20.78125-7.789063 28.847656-.050781 3.886718 3.835937 6.0625 9.078124 6.042968 14.539062.050782 5.574219-2.144531 10.9375-6.089843 14.878906zm0 0"/>
<path class="cls-1" d="m47.640625 193.699219c-9.980469-9.902344-15.605469-23.367188-15.628906-37.425781-.027344-14.058594 5.542969-27.546876 15.484375-37.488282l-11.304688-11.328125c-26.289062 26.644531-26.355468 69.445313-.152344 96.171875 26.207032 26.722656 69 27.496094 96.152344 1.734375l-11.109375-11.519531c-20.566406 19.636719-52.953125 19.570312-73.441406-.144531zm0 0"/>
<path class="cls-1" d="m58.792969 130.105469c-6.988281 6.953125-10.878907 16.425781-10.792969 26.28125-.019531 9.632812 3.808594 18.878906 10.640625 25.671875 6.832031 6.796875 16.09375 10.578125 25.726563 10.503906 9.542968.023438 18.71875-3.652344 25.601562-10.253906l-11.105469-11.523438c-8.050781 7.738282-20.769531 7.757813-28.847656.050782-3.882813-3.835938-6.0625-9.078126-6.039063-14.539063-.050781-5.574219 2.140626-10.9375 6.089844-14.878906zm0 0"/>
</svg>